4804c8a43999e2a7df2e1541b89857426c5b165c8d6e4c1a7a
8d3da2459c646c11d396e76c419d70862e5c18a84d289116bf
f10c5b937d8cbf4eeb0dbb14c2eb9a964ebc176284da105af8
51547d6737f7de2cb18e401b5f880957166f66d3134523ebf8
9e2d32394caefcff9c51607cfb69693e2f35db2af26b7a3926
12d4e4a52cbd2a00918d3cf78137060e2bb856b92837cbf183
7f859008e8e41bcdb16d6ef4da1cd1ad016564a046dc60bc83
597d7b32816100e0f3cf0507b74891d2e2304649222e6810a6
ce82fca765675b473e80891d9ad9090c216994312f1b7985ca
7fe4aa2e79b0fa96891793d2157ffd75513f99ae514a29adf3
e2f10c0d49b5d098c9a56f40a08f3a84e52643f2929200f6d0
71d1d93baf0da0a22c39369934ace011e8567b3c00666c89ab
2643bf8f96d0cce26037f3cde3e53d450a0e1341d499fca9c3
717a509168e1302c5d6d4889b73664ce517fef0d357b871997
a4b5812e90c3b959da6311b90477cacd674a8c058bbb8dcaeb
6d1a9bc8f45b47a50afaf60d6ecd75fe3e67d159592d1a60d2
c1071c84a74cb9b78400098c1d0e906f49718f92a7d427cd42
0f74365d92a7a3d16221575a0136730539b76222beb4022d0c
174c964d71fe8f8ffe7213057dc7e824d68e7b185524a342d2
ad93c7fd84db0e4a4984471bc470578ecdf8aacc2e8435fc79
4ff82db52f1b855a84d4ea91ea8a3458e8e54782906dbbbc13
bf97019f30cb15ba4eccdbdaae255a079b068c16f476640e18
02e9bf2974f390eff444a3714475831d0c2fa53d7fdecafaf0
2c33e217d979479615b87faaa2edb763977fae233dcf771227
68572fa68d5920ab3ae495d8c79a3c3aa85c8ed39a8bbe4c6b
1b20aab1f01aa460ee12fd2acda82683866ca0e41fb8ebc597
a37a76c07fdce5e7989ea4e72be63151a0d3ee849bd5e51e81
af9d7dd383488218ef9422dfc69ea7850b787ede34cfdedbc7
466eb32fff835a1b6a47a36b9045211febf4d027f9ef87d6c1
c01209e4ab2dd272f3f7dda27b880970e7fc25354b12512a65
354f4de48e667ed39ea0c7c590306eb43392e43fca7fff47f6
377ba8e60100d4f02b3d38f6f596c2af35a063a29347b4a0a6
c0ca2895bd88d1909b41253773bf526a83dddc8e741e95f41d
a76c3576ef412578d935988b5efeda702d6c37a4fa3d4ddcea
a6da14b2b174c3e94ef2d2bb00399c6fab46af28e79b5d697d
6d7fb271bb9bab6a64a2246656ef1ebde531028eca32d4e1f2
c1248f28188b893c52636ba39c0b651b35861f9744ef7ebf55
25036e2c24219e8dab44255a36ec7a2bcfd01eb114760540ea
0b429e8c7fd9be1d78dc64a91451e314177637850b49956bda
a673f0ae224b07f2a4932129e3773d8771016b82bf1503be09
