87b37caae34cbdca89a195bba29943eb97984533de045c4cf0
97683c5eeddafd935f943d419a8aa700e2171d5d9536959644
18054e8c7f8db6a7e660a0eabdfcd394935520c2716549e72f
80e17a360a8853a668ea0e766a868a911873beed8a8ce32f67
b61161d35e81c8838bf3c004bcaf5c9c19e4c1cf25a04de715
2bf7d204c67cd61b2be753eca2c48caa454315f27f3c9a3ac6
60dcc0db32c55a806f9ac9a0a0a7df567f01117eb39d0194d0
5dc562fac225872367ef0319eded8c0a531be4089f1ce33a1d
d8e3badbe1cddaed016f19d73e9470959a75290df27a5fa6b7
7f0fc414359ac9a184c8e9c612f96ad90ae585419bfb8a2c7f
e8cee36e2bd775a4d287f16f1d5fa8a8520cfa622d7a1abe80
c5ad64393b3e24203cb1c0d9fd731712ae5d6e524281359771
97f2e19ac7448d305e56dc198ca4a5ce235a439ba3adf57e83
38a558537fd24477cec5fe58a5daf95524384e8d6ebd6adcbd
ef5ffa5bc87e3f9e7332142158899b138bec8e4c651170fdc0
94a869a24adb7a7bd300d5b09ce1c52f77566d7dbb8daae667
83b30609ecb7bcadbda543dfe69e7ad21631d51d87d146749d
fc1ec67d9524ef466bfa0e497504b3654e716dba90c4b5a955
ce55999f8242fb016185556ac35d44105691e48fcf4bef5159
19064596653736ba43d50315f453bbb869e7550b07808f5e59
b2fa0d1f7a5d911fc138fb86f28dfba62f91385f726ea17172
a5403fc70a335e0a21e43a8a6091928f07a473cf15890bfc43
f3fbf0eb655cb790e129a27a6971982ada46316d253a024efc
f3c93078975d87689cd902fa2297924c6d0ece1cb02ed85b9d
05b71c071cb1533b782b21c76a93ac6cd6328c91a5c8a6b5ba
724ed78e77e58892f70b5fdeacf0f4b5eee6a3d0d9e060fdbd
202547051ff278724a8a0b37ac095a79626416f981f8ce2c54
deb2e69988de0563311853bf6892aedd16df7ae6f5f37a1fd6
498ed7e04164bbe0b67978f82a7823871f6d068c1845a1ce0a
d4a1320e5a16fa272287cc0c44bc84e46cbfee08401d024234
fa3b8da8d5766c2c88a880de0c2aca1531039925a5379972a0
5bb0311d5157835dbab4a378a11f8b6d561ec549ba16057a6f
b8225348865504fb4c8723df2a68d5128f44fc2c40687664f9
30c214eb665b0348965bd51997e6dd267bedcea90c987836d3
ccf32fe4d93b6f31bb7ac3d160daa0b53f498b95b66285de39
ec5ba9dec73ffad4ef014d18825c9d5784908260adf4cc32fc
78bf7e7dacbfe5df583175088ebf79c9e767d6eaad46e5d1ce
554d60f89797b16f9669d18814e53723951450159687fca973
88100b674ecb41370a74a76afba05665cd3efd0a8b745bd7e6
065304b0d37b03441817f445cd3f695ec9a655b6f6176b5ce7
